id_produit_parcel,nom_produit_parcel,id_categorie_parcel,nom_categorie_parcel
1,"Ail, Echalotes, Oignons",1,Légumes
2,Artichauts,1,Légumes
3,Asperges,1,Légumes
4,Aubergines,1,Légumes
5,"Betteraves, Radis, Salsifis, Similaires",1,Légumes
6,"Bettes, Cardes, Brèdes, Christophine",1,Légumes
7,"Carottes, Navets potagers, Céleris raves",1,Légumes
8,Céleris branche,1,Légumes
9,Choux,1,Légumes
10,"Citrouilles, Courges, Calebasses",1,Légumes
11,"Concombres, Cornichons",1,Légumes
12,Courgettes,1,Légumes
13,Epinards,1,Légumes
14,Haricot,1,Légumes
15,Maïs doux,1,Légumes
16,"Melons, Pastèques",1,Légumes
18,Poireaux,1,Légumes
19,Pois,1,Légumes
20,Poivrons et piments,1,Légumes
21,Salades et endives,1,Légumes
22,Tomates,1,Légumes
23,Abricots,2,Fruits
24,Amandes,2,Fruits
25,Autres baies,2,Fruits
26,Cerises,2,Fruits
27,Chataîgnes,2,Fruits
28,Figues,2,Fruits
29,Fraises,2,Fruits
30,Framboises,2,Fruits
31,Kiwis,2,Fruits
32,Mandarines et clémentines,2,Fruits
33,Nectarines,2,Fruits
34,Noisettes,2,Fruits
35,Noix,2,Fruits
36,Olives,2,Fruits
37,Pamplemousses,2,Fruits
38,Pêches,2,Fruits
39,Poires,2,Fruits
40,Pommes,2,Fruits
41,Prunes,2,Fruits
42,Raisins de table,2,Fruits
43,Autres céréales,3,Céréales et autres cultures
44,Avoine,3,Céréales et autres cultures
45,Blé dur,3,Céréales et autres cultures
46,Blé tendre,3,Céréales et autres cultures
47,Haricots secs,3,Céréales et autres cultures
48,Lentilles,3,Céréales et autres cultures
49,Orge,3,Céréales et autres cultures
50,Pois secs et autres protéagineux,3,Céréales et autres cultures
51,Pomme de terre,3,Céréales et autres cultures
52,Seigle,3,Céréales et autres cultures
53,Produits laitiers,4,Produits de l’élevage
54,Viande bovine à viande,4,Produits de l’élevage
55,Viande porcine,4,Produits de l’élevage
57,"Volailles, lapins et autres",4,Produits de l’élevage
58,Œufs,4,Produits de l’élevage
59,Colza (huile),3,Céréales et autres cultures
60,Soja (huile),3,Céréales et autres cultures
61,Tournesol (huile),3,Céréales et autres cultures
63,Viande ovine à viande,4,Produits de l’élevage
64,Betterave à sucre,3,Céréales et autres cultures
